1 10 20
100 200 125
201 210 89
900 1000 174
808174 31623 509
6784 836859 509
379 890 179
342 537 142
55 534 144
292 27300 308
811 81401 351
7432 743001 509
784 1190 182
187 1035 179
5636 7218 262
840 1083 179
435 23711 282
779649 63465 509
743314 965024 525
521229 774861 509
386485 25322 443
58 27045 308
409010 374567 436
408 1026 179
314 1071 179
936743 625221 525
610398 115318 470
751 23767 282
880176 518695 525
732405 613107 509
785 1042 179
832681 997685 525
4929 986787 525
5804 734151 509
493 879 179
103 7861 262
284518 98691 443
4980 1904 238
785037 80851 509
737 787 153
8994 275232 443
92 545 144
338 14337 276
4812 959452 525
775631 98173 509
865100 453353 525
236 563 144
155345 778059 509
196 71926 340
310855 114144 443
460 12274 268
577 860 171
574 460 142
5574 769881 509
784 951 179
395682 69396 443
569 118767 354
696 1092 179
480 582 142
8623 9804 260
207 1120 179
487 7727 262
534884 92187 470
591 58159 340
608 42475 324
623 117720 354
478 885 179
554299 805049 509
797752 45091 509
654 38717 324
8857 894720 525
396190 4266 443
294101 54679 443
5527 8293 262
7949 647792 509
7001 559651 470
5121 122026 354
520510 110562 470
492 1028 179
550 900 179
8540 427348 449
528 27663 308
194 8958 262
211 93975 351
7319 48522 324
614 1003 179
708 15260 276
760663 712663 424
762742 87297 509
987735 88787 525
4828 971788 525
697 533 145
97 1172 182
746 1007 179
797649 891436 525
166 1141 179
5588 819508 509
421817 85043 449
451 755 171
890 28373 308
795 781 122
5591 8685 262
458 616 142
688229 54660 509
438 121078 354
